{
  "results": [
    {
      "popularity": 117.58,
      "vote_count": 61,
      "video": false,
      "poster_path": "/5MSDwUcqnGodFTvtlLiLKK0XKS.jpg",
      "id": 521034,
      "adult": false,
      "backdrop_path": "/8PK4X8U3C79ilzIjNTkTgjmc4js.jpg",
      "original_language": "en",
      "original_title": "The Secret Garden",
      "genre_ids": [
        18,
        14,
        10751
      ],
      "title": "The Secret Garden",
      "vote_average": 7.5,
      "overview": "Mary Lennox is born in India to wealthy British parents who never wanted her. When her parents suddenly die, she is sent back to England to live with her uncle. She meets her sickly cousin, and the two children find a wondrous secret garden lost in the grounds of Misselthwaite Manor.",
      "release_date": "2020-07-08"
    },
    {
      "popularity": 117.367,
      "vote_count": 49,
      "video": false,
      "poster_path": "/3eg0kGC2Xh0vhydJHO37Sp4cmMt.jpg",
      "id": 531499,
      "adult": false,
      "backdrop_path": "/zogWnCSztU8xvabaepQnAwsOtOt.jpg",
      "original_language": "en",
      "original_title": "The Tax Collector",
      "genre_ids": [
        28,
        80,
        18,
        53
      ],
      "title": "The Tax Collector",
      "vote_average": 6.2,
      "overview": "David Cuevas is a family man who works as a gangland tax collector for high ranking Los Angeles gang members. He makes collections across the city with his partner Creeper making sure people pay up or will see retaliation. An old threat returns to Los Angeles that puts everything David loves in harm’s way.",
      "release_date": "2020-08-07"
    },
    {
      "popularity": 95.114,
      "vote_count": 10,
      "video": false,
      "poster_path": "/dKjD3DTZjRI3Ipkf7Oz5zAILnwD.jpg",
      "id": 659991,
      "adult": false,
      "backdrop_path": "/5nRyaVklxyA9OkxqZaPv1KBRqpd.jpg",
      "original_language": "en",
      "original_title": "Made in Italy",
      "genre_ids": [
        35,
        18
      ],
      "title": "Made in Italy",
      "vote_average": 5.8,
      "overview": "A bohemian artist travels from London to Italy with his estranged son to sell the house they inherited from his late wife.",
      "release_date": "2020-08-06"
    },
    {
      "popularity": 82.052,
      "vote_count": 393,
      "video": false,
      "poster_path": "/jHo2M1OiH9Re33jYtUQdfzPeUkx.jpg",
      "id": 385103,
      "adult": false,
      "backdrop_path": "/fKtYXUhX5fxMxzQfyUcQW9Shik6.jpg",
      "original_language": "en",
      "original_title": "Scoob!",
      "genre_ids": [
        12,
        16,
        35,
        10751
      ],
      "title": "Scoob!",
      "vote_average": 7.6,
      "overview": "In Scooby-Doo’s greatest adventure yet, see the never-before told story of how lifelong friends Scooby and Shaggy first met and how they joined forces with young detectives Fred, Velma, and Daphne to form the famous Mystery Inc. Now, with hundreds of cases solved, Scooby and the gang face their biggest, toughest mystery ever: an evil plot to unleash the ghost dog Cerberus upon the world. As they race to stop this global “dogpocalypse,” the gang discovers that Scooby has a secret legacy and an epic destiny greater than anyone ever imagined.",
      "release_date": "2020-07-08"
    },
    {
      "popularity": 86.539,
      "vote_count": 26769,
      "video": false,
      "poster_path": "/9gk7adHYeDvHkCSEqAvQNLV5Uge.jpg",
      "id": 27205,
      "adult": false,
      "backdrop_path": "/s3TBrRGB1iav7gFOCNx3H31MoES.jpg",
      "original_language": "en",
      "original_title": "Inception",
      "genre_ids": [
        28,
        12,
        878
      ],
      "title": "Inception",
      "vote_average": 8.3,
      "overview": "Cobb, a skilled thief who commits corporate espionage by infiltrating the subconscious of his targets is offered a chance to regain his old life as payment for a task considered to be impossible: \"inception\", the implantation of another person's idea into a target's subconscious.",
      "release_date": "2010-07-15"
    },
    {
      "popularity": 68.585,
      "vote_count": 8752,
      "video": false,
      "poster_path": "/7IiTTgloJzvGI1TAYymCfbfl3vT.jpg",
      "id": 496243,
      "adult": false,
      "backdrop_path": "/ApiBzeaa95TNYliSbQ8pJv4Fje7.jpg",
      "original_language": "ko",
      "original_title": "기생충",
      "genre_ids": [
        35,
        18,
        53
      ],
      "title": "Parasite",
      "vote_average": 8.5,
      "overview": "All unemployed, Ki-taek's family takes peculiar interest in the wealthy and glamorous Parks for their livelihood until they get entangled in an unexpected incident.",
      "release_date": "2019-05-30"
    },
    {
      "popularity": 53.681,
      "vote_count": 19,
      "video": false,
      "poster_path": "/k50gYFDfpAyxcIGjWjnXAaOM81e.jpg",
      "id": 505707,
      "adult": false,
      "backdrop_path": "/l0vUzd701TzvN3jywXex9G01zpd.jpg",
      "original_language": "en",
      "original_title": "Waiting for the Barbarians",
      "genre_ids": [
        18
      ],
      "title": "Waiting for the Barbarians",
      "vote_average": 5.4,
      "overview": "At an isolated frontier outpost, a colonial magistrate suffers a crisis of conscience when an army colonel arrives looking to interrogate the locals about an impending uprising, using cruel tactics that horrify the magistrate.",
      "release_date": "2020-07-30"
    },
    {
      "popularity": 56.212,
      "vote_count": 5370,
      "video": false,
      "poster_path": "/aQvJ5WPzZgYVDrxLX4R6cLJCEaQ.jpg",
      "id": 454626,
      "adult": false,
      "backdrop_path": "/diFNHa3SXaGSSFovGatNWxLz2tn.jpg",
      "original_language": "en",
      "original_title": "Sonic the Hedgehog",
      "genre_ids": [
        28,
        35,
        878,
        10751
      ],
      "title": "Sonic the Hedgehog",
      "vote_average": 7.5,
      "overview": "Based on the global blockbuster videogame franchise from Sega, Sonic the Hedgehog tells the story of the world’s speediest hedgehog as he embraces his new home on Earth. In this live-action adventure comedy, Sonic and his new best friend team up to defend the planet from the evil genius Dr. Robotnik and his plans for world domination.",
      "release_date": "2020-02-12"
    },
    {
      "popularity": 52.007,
      "vote_count": 1230,
      "video": false,
      "poster_path": "/wxPhn4ef1EAo5njxwBkAEVrlJJG.jpg",
      "id": 514847,
      "adult": false,
      "backdrop_path": "/qfQ78ZKiouoM2yhAnfNblp9ijQE.jpg",
      "original_language": "en",
      "original_title": "The Hunt",
      "genre_ids": [
        28,
        27,
        53
      ],
      "title": "The Hunt",
      "vote_average": 6.7,
      "overview": "Twelve strangers wake up in a clearing. They don't know where they are—or how they got there. In the shadow of a dark internet conspiracy theory, ruthless elitists gather at a remote location to hunt humans for sport. But their master plan is about to be derailed when one of the hunted turns the tables on her pursuers.",
      "release_date": "2020-03-11"
    },
    {
      "popularity": 48.922,
      "vote_count": 102,
      "video": false,
      "poster_path": "/3ynPnBXQVT2Y0s19fDIPlWKUlxH.jpg",
      "id": 587496,
      "adult": false,
      "backdrop_path": "/2gBMBfmQvHeOQQ5PiKiuxVdGs77.jpg",
      "original_language": "en",
      "original_title": "The Rental",
      "genre_ids": [
        18,
        27,
        53
      ],
      "title": "The Rental",
      "vote_average": 5.7,
      "overview": "Two couples on an oceanside getaway grow suspicious that the host of their seemingly perfect rental house may be spying on them. Before long, what should have been a celebratory weekend trip turns into something far more sinister.",
      "release_date": "2020-07-23"
    },
    {
      "popularity": 44.618,
      "vote_count": 1,
      "video": false,
      "poster_path": "/mKp5RBvc1HVC3wvTLLHJ334HHnk.jpg",
      "id": 520318,
      "adult": false,
      "backdrop_path": "/s3nENHOH2xEbkBpH5yw0Fa0lgDA.jpg",
      "original_language": "en",
      "original_title": "Fatima",
      "genre_ids": [
        18,
        10751
      ],
      "title": "Fatima",
      "vote_average": 2,
      "overview": "In 1917, outside the parish of Fátima, Portugal, a 10-year-old girl and her two younger cousins witness multiple visitations of the Virgin Mary, who tells them that only prayer and suffering will bring an end to World War I.  As secularist government officials and Church leaders try to force the children to recant their story, word of the sighting spreads across the country, inspiring religious pilgrims to flock to the site in hopes of witnessing a miracle..",
      "release_date": "2020-08-13"
    },
    {
      "popularity": 45.642,
      "vote_count": 274,
      "video": false,
      "poster_path": "/hPkqY2EMqWUnFEoedukilIUieVG.jpg",
      "id": 531876,
      "adult": false,
      "backdrop_path": "/n1RohH2VoK1CdVI2fXvcP19dSlm.jpg",
      "original_language": "en",
      "original_title": "The Outpost",
      "genre_ids": [
        28,
        18,
        36,
        10752
      ],
      "title": "The Outpost",
      "vote_average": 6.6,
      "overview": "A small unit of U.S. soldiers, alone at the remote Combat Outpost Keating, located deep in the valley of three mountains in Afghanistan, battles to defend against an overwhelming force of Taliban fighters in a coordinated attack. The Battle of Kamdesh, as it was known, was the bloodiest American engagement of the Afghan War in 2009 and Bravo Troop 3-61 CAV became one of the most decorated units of the 19-year conflict.",
      "release_date": "2020-06-24"
    },
    {
      "popularity": 54.085,
      "vote_count": 24,
      "video": false,
      "poster_path": "/ysFxqlf0qjPxt4c8BRvLfuQqsAK.jpg",
      "id": 522444,
      "adult": false,
      "backdrop_path": "/n9UgTccYfvnBflsdDjWvBmlPRWt.jpg",
      "original_language": "en",
      "original_title": "Black Water: Abyss",
      "genre_ids": [
        12,
        27,
        53
      ],
      "title": "Black Water: Abyss",
      "vote_average": 4.8,
      "overview": "An adventure-loving couple convince their friends to explore a remote, uncharted cave system in the forests of Northern Australia. With a tropical storm approaching, they abseil into the mouth of the cave, but when the caves start to flood, tensions rise as oxygen levels fall and the friends find themselves trapped. Unknown to them, the storm has also brought in a pack of dangerous and hungry crocodiles.",
      "release_date": "2020-07-09"
    },
    {
      "popularity": 35.74,
      "vote_count": 1036,
      "video": false,
      "poster_path": "/7W0G3YECgDAfnuiHG91r8WqgIOe.jpg",
      "id": 446893,
      "adult": false,
      "backdrop_path": "/qsxhnirlp7y4Ae9bd11oYJSX59j.jpg",
      "original_language": "en",
      "original_title": "Trolls World Tour",
      "genre_ids": [
        12,
        16,
        35,
        14,
        10402,
        10751
      ],
      "title": "Trolls World Tour",
      "vote_average": 7.7,
      "overview": "Queen Poppy and Branch make a surprising discovery — there are other Troll worlds beyond their own, and their distinct differences create big clashes between these various tribes. When a mysterious threat puts all of the Trolls across the land in danger, Poppy, Branch, and their band of friends must embark on an epic quest to create harmony among the feuding Trolls to unite them against certain doom.",
      "release_date": "2020-03-12"
    },
    {
      "popularity": 62.265,
      "vote_count": 2833,
      "video": false,
      "poster_path": "/f4aul3FyD3jv3v4bul1IrkWZvzq.jpg",
      "id": 508439,
      "adult": false,
      "backdrop_path": "/xFxk4vnirOtUxpOEWgA1MCRfy6J.jpg",
      "original_language": "en",
      "original_title": "Onward",
      "genre_ids": [
        12,
        16,
        35,
        14,
        10751
      ],
      "title": "Onward",
      "vote_average": 7.9,
      "overview": "In a suburban fantasy world, two teenage elf brothers embark on an extraordinary quest to discover if there is still a little magic left out there.",
      "release_date": "2020-02-29"
    },
    {
      "popularity": 37.161,
      "vote_count": 0,
      "video": false,
      "poster_path": "/tVRi0Lnl96FrU8L2i5QqJLjSZvv.jpg",
      "id": 608994,
      "adult": false,
      "backdrop_path": "/fkJ7fwFhAivxZZkW1ZSzEOGwLOd.jpg",
      "original_language": "en",
      "original_title": "The Cleansing Hour",
      "genre_ids": [
        27
      ],
      "title": "The Cleansing Hour",
      "vote_average": 0,
      "overview": "Millennial entrepreneurs, Drew and Max, run a webcast that streams live exorcisms that are, in fact, elaborately staged hoaxes. But they get their comeuppance when today's actress becomes mysteriously possessed by a real demon that holds the crew hostage. To make matters worse-- the possessed victim is Drew's fiancée, Lane. In front of a rapidly-growing global audience, the demon subjects Max to a series of violent and humiliating challenges meant to punish him for his online charade. Meanwhile, in an effort to save the love of his life, Drew discovers that the demon's sinister motive is not only about revenge, but also to expose the dark secrets he, Max, and Lane have been hiding from one another. With only the show clock remaining, it's a matter of time before either the truth is revealed or the demon forces them to meet their maker.",
      "release_date": "2020-08-13"
    },
    {
      "popularity": 48.077,
      "id": 530915,
      "video": false,
      "vote_count": 6060,
      "vote_average": 8,
      "title": "1917",
      "release_date": "2019-12-25",
      "original_language": "en",
      "original_title": "1917",
      "genre_ids": [
        10752,
        18,
        28,
        36
      ],
      "backdrop_path": "/cqa3sa4c4jevgnEJwq3CMF8UfTG.jpg",
      "adult": false,
      "overview": "At the height of the First World War, two young British soldiers must cross enemy territory and deliver a message that will stop a deadly attack on hundreds of soldiers.",
      "poster_path": "/iZf0KyrE25z1sage4SYFLCCrMi9.jpg"
    },
    {
      "popularity": 58.664,
      "vote_count": 3,
      "video": false,
      "poster_path": "/j8MRnCjuN7kpM8w3B5hM5mrvTaE.jpg",
      "id": 400160,
      "adult": false,
      "backdrop_path": "/wu1uilmhM4TdluKi2ytfz8gidHf.jpg",
      "original_language": "en",
      "original_title": "The SpongeBob Movie: Sponge on the Run",
      "genre_ids": [
        12,
        16,
        35,
        14,
        10751
      ],
      "title": "The SpongeBob Movie: Sponge on the Run",
      "vote_average": 8,
      "overview": "After SpongeBob's beloved pet snail Gary is snail-napped, he and Patrick embark on an epic adventure to The Lost City of Atlantic City to bring Gary home.",
      "release_date": "2020-08-14"
    },
    {
      "popularity": 29.015,
      "vote_count": 9,
      "video": false,
      "poster_path": "/k6bNQOUEfBbvflM1bXOkRmtcLa1.jpg",
      "id": 664297,
      "adult": false,
      "backdrop_path": "/dvy5CN6NlEvvHhFbNFLGwVlCzLu.jpg",
      "original_language": "en",
      "original_title": "She Dies Tomorrow",
      "genre_ids": [
        35,
        18,
        53
      ],
      "title": "She Dies Tomorrow",
      "vote_average": 4.3,
      "overview": "Amy is ravaged by the notion that she is going to die tomorrow, which sends her down a dizzying emotional spiral. When her sceptical friend Jane discovers Amy’s feeling of imminent death to be contagious, they both begin bizarre journeys through what might be the last day of their lives.",
      "release_date": "2020-07-31"
    },
    {
      "popularity": 31.65,
      "vote_count": 16,
      "video": false,
      "poster_path": "/27eA9xGba61LtKr7gJRnhtDDgEP.jpg",
      "id": 651586,
      "adult": false,
      "backdrop_path": "/1iEDKZHREDetZcOoqioZewcHOw9.jpg",
      "original_language": "es",
      "original_title": "Superagente Makey",
      "genre_ids": [
        28,
        35
      ],
      "title": "Superagente Makey",
      "vote_average": 4.1,
      "overview": "Makey is a humble police officer that, unexpectedly, gets caught in the middle of a dangerous international drug operation in the Costa del Sol, Spain.",
      "release_date": "2020-07-17"
    }
  ],
  "page": 1,
  "total_results": 722,
  "dates": {
    "maximum": "2020-08-19",
    "minimum": "2020-07-02"
  },
  "total_pages": 37
}
